Using factR
…
We can also list the first 10 genes gaining the C2H2 domain:

domains.combine.shortlist %>%   
  filter(domain == "Classic zinc finger, C2H2") %>%   
  distinct(gene_id, gene_name)  
#> # A tibble: 24 x 2
#>    gene_id               gene_name    
#>    <chr>                 <chr>        
#>  1 ENSMUSG00000067929.3  Gm10226      
#>  2 ENSMUSG00000059839.9  Zfp874b      
#>  3 ENSMUSG00000073448.2  Gm10509      
#>  4 ENSMUSG00000078899.9  Gm4631       
#>  5 ENSMUSG00000074529.10 Zfp972       
#>  6 ENSMUSG00000092544.8  Gm20422      
#>  7 ENSMUSG00000066880.15 Zfp617       
#>  8 ENSMUSG00000094622.2  Gm3055       
#>  9 ENSMUSG00000061371.7  Zfp873       
#> 10 ENSMUSG00000080717.10 B230307C23Rik
#> #  with 14 more rows
…
